%YAML 1.1
%TAG !u! tag:unity3d.com,2011:
--- !u!1001 &7977131246432067590
PrefabInstance:
  m_ObjectHideFlags: 0
  serializedVersion: 2
  m_Modification:
    m_TransformParent: {fileID: 0}
    m_Modifications:
    - target: {fileID: 1541133878, guid: 4ac7df741a9c0a2418ec19477729ee3d, type: 3}
      propertyPath: FixedPointerLength
      value: 5
      objectReference: {fileID: 0}
    - target: {fileID: 1541133878, guid: 4ac7df741a9c0a2418ec19477729ee3d, type: 3}
      propertyPath: HidePointerIfNoObjectsFound
      value: 0
      objectReference: {fileID: 0}
    - target: {fileID: 1715875326, guid: 4ac7df741a9c0a2418ec19477729ee3d, type: 3}
      propertyPath: FixedPointerLength
      value: 2.5
      objectReference: {fileID: 0}
    - target: {fileID: 1715875326, guid: 4ac7df741a9c0a2418ec19477729ee3d, type: 3}
      propertyPath: HidePointerIfNoObjectsFound
      value: 0
      objectReference: {fileID: 0}
    - target: {fileID: 2683195716791022644, guid: 4ac7df741a9c0a2418ec19477729ee3d,
        type: 3}
      propertyPath: m_Name
      value: XR Rig Advanced
      objectReference: {fileID: 0}
    - target: {fileID: 2683195716791022646, guid: 4ac7df741a9c0a2418ec19477729ee3d,
        type: 3}
      propertyPath: m_RootOrder
      value: 0
      objectReference: {fileID: 0}
    - target: {fileID: 2683195716791022646, guid: 4ac7df741a9c0a2418ec19477729ee3d,
        type: 3}
      propertyPath: m_LocalPosition.x
      value: -4.363653
      objectReference: {fileID: 0}
    - target: {fileID: 2683195716791022646, guid: 4ac7df741a9c0a2418ec19477729ee3d,
        type: 3}
      propertyPath: m_LocalPosition.y
      value: 3.66
      objectReference: {fileID: 0}
    - target: {fileID: 2683195716791022646, guid: 4ac7df741a9c0a2418ec19477729ee3d,
        type: 3}
      propertyPath: m_LocalPosition.z
      value: -17.288021
      objectReference: {fileID: 0}
    - target: {fileID: 2683195716791022646, guid: 4ac7df741a9c0a2418ec19477729ee3d,
        type: 3}
      propertyPath: m_LocalRotation.w
      value: 1
      objectReference: {fileID: 0}
    - target: {fileID: 2683195716791022646, guid: 4ac7df741a9c0a2418ec19477729ee3d,
        type: 3}
      propertyPath: m_LocalRotation.x
      value: 0
      objectReference: {fileID: 0}
    - target: {fileID: 2683195716791022646, guid: 4ac7df741a9c0a2418ec19477729ee3d,
        type: 3}
      propertyPath: m_LocalRotation.y
      value: 0
      objectReference: {fileID: 0}
    - target: {fileID: 2683195716791022646, guid: 4ac7df741a9c0a2418ec19477729ee3d,
        type: 3}
      propertyPath: m_LocalRotation.z
      value: 0
      objectReference: {fileID: 0}
    - target: {fileID: 2683195716791022646, guid: 4ac7df741a9c0a2418ec19477729ee3d,
        type: 3}
      propertyPath: m_LocalEulerAnglesHint.x
      value: 0
      objectReference: {fileID: 0}
    - target: {fileID: 2683195716791022646, guid: 4ac7df741a9c0a2418ec19477729ee3d,
        type: 3}
      propertyPath: m_LocalEulerAnglesHint.y
      value: 0
      objectReference: {fileID: 0}
    - target: {fileID: 2683195716791022646, guid: 4ac7df741a9c0a2418ec19477729ee3d,
        type: 3}
      propertyPath: m_LocalEulerAnglesHint.z
      value: 0
      objectReference: {fileID: 0}
    - target: {fileID: 3966781999181966217, guid: 4ac7df741a9c0a2418ec19477729ee3d,
        type: 3}
      propertyPath: m_IsActive
      value: 1
      objectReference: {fileID: 0}
    - target: {fileID: 3966781999270109203, guid: 4ac7df741a9c0a2418ec19477729ee3d,
        type: 3}
      propertyPath: m_Positions.Array.data[1].z
      value: 2.5
      objectReference: {fileID: 0}
    - target: {fileID: 3966781999270109203, guid: 4ac7df741a9c0a2418ec19477729ee3d,
        type: 3}
      propertyPath: m_Parameters.widthMultiplier
      value: 0.02
      objectReference: {fileID: 0}
    - target: {fileID: 3966781999270109203, guid: 4ac7df741a9c0a2418ec19477729ee3d,
        type: 3}
      propertyPath: m_Parameters.colorGradient.atime1
      value: 964
      objectReference: {fileID: 0}
    - target: {fileID: 3966781999270109203, guid: 4ac7df741a9c0a2418ec19477729ee3d,
        type: 3}
      propertyPath: m_Parameters.colorGradient.key0.b
      value: 0
      objectReference: {fileID: 0}
    - target: {fileID: 3966781999270109203, guid: 4ac7df741a9c0a2418ec19477729ee3d,
        type: 3}
      propertyPath: m_Parameters.colorGradient.key0.g
      value: 1
      objectReference: {fileID: 0}
    - target: {fileID: 3966781999270109203, guid: 4ac7df741a9c0a2418ec19477729ee3d,
        type: 3}
      propertyPath: m_Parameters.colorGradient.key0.r
      value: 0.19127488
      objectReference: {fileID: 0}
    - target: {fileID: 3966781999270109203, guid: 4ac7df741a9c0a2418ec19477729ee3d,
        type: 3}
      propertyPath: m_Parameters.colorGradient.key1.a
      value: 1
      objectReference: {fileID: 0}
    - target: {fileID: 3966781999270109203, guid: 4ac7df741a9c0a2418ec19477729ee3d,
        type: 3}
      propertyPath: m_Parameters.colorGradient.key1.b
      value: 0.1254902
      objectReference: {fileID: 0}
    - target: {fileID: 3966781999270109203, guid: 4ac7df741a9c0a2418ec19477729ee3d,
        type: 3}
      propertyPath: m_Parameters.colorGradient.key1.g
      value: 0.9803922
      objectReference: {fileID: 0}
    - target: {fileID: 3966781999270109203, guid: 4ac7df741a9c0a2418ec19477729ee3d,
        type: 3}
      propertyPath: m_Parameters.colorGradient.key1.r
      value: 0.2901961
      objectReference: {fileID: 0}
    - target: {fileID: 3966781999270109203, guid: 4ac7df741a9c0a2418ec19477729ee3d,
        type: 3}
      propertyPath: m_Parameters.colorGradient.key2.a
      value: 1
      objectReference: {fileID: 0}
    - target: {fileID: 3966781999270109203, guid: 4ac7df741a9c0a2418ec19477729ee3d,
        type: 3}
      propertyPath: m_Parameters.colorGradient.m_NumAlphaKeys
      value: 3
      objectReference: {fileID: 0}
    - target: {fileID: 5674136981558723233, guid: 4ac7df741a9c0a2418ec19477729ee3d,
        type: 3}
      propertyPath: m_Positions.Array.data[1].z
      value: 2.5
      objectReference: {fileID: 0}
    - target: {fileID: 5674136981558723233, guid: 4ac7df741a9c0a2418ec19477729ee3d,
        type: 3}
      propertyPath: m_Parameters.widthMultiplier
      value: 0.02
      objectReference: {fileID: 0}
    - target: {fileID: 5674136981558723233, guid: 4ac7df741a9c0a2418ec19477729ee3d,
        type: 3}
      propertyPath: m_Parameters.colorGradient.key0.a
      value: 1
      objectReference: {fileID: 0}
    - target: {fileID: 5674136981558723233, guid: 4ac7df741a9c0a2418ec19477729ee3d,
        type: 3}
      propertyPath: m_Parameters.colorGradient.key0.b
      value: 0
      objectReference: {fileID: 0}
    - target: {fileID: 5674136981558723233, guid: 4ac7df741a9c0a2418ec19477729ee3d,
        type: 3}
      propertyPath: m_Parameters.colorGradient.key0.g
      value: 0
      objectReference: {fileID: 0}
    - target: {fileID: 5674136981558723233, guid: 4ac7df741a9c0a2418ec19477729ee3d,
        type: 3}
      propertyPath: m_Parameters.colorGradient.key0.r
      value: 1
      objectReference: {fileID: 0}
    - target: {fileID: 5674136981558723233, guid: 4ac7df741a9c0a2418ec19477729ee3d,
        type: 3}
      propertyPath: m_Parameters.colorGradient.key1.a
      value: 1
      objectReference: {fileID: 0}
    - target: {fileID: 5674136981558723233, guid: 4ac7df741a9c0a2418ec19477729ee3d,
        type: 3}
      propertyPath: m_Parameters.colorGradient.key1.b
      value: 0
      objectReference: {fileID: 0}
    - target: {fileID: 5674136981558723233, guid: 4ac7df741a9c0a2418ec19477729ee3d,
        type: 3}
      propertyPath: m_Parameters.colorGradient.key1.g
      value: 0
      objectReference: {fileID: 0}
    - target: {fileID: 5674136981558723233, guid: 4ac7df741a9c0a2418ec19477729ee3d,
        type: 3}
      propertyPath: m_Parameters.colorGradient.key1.r
      value: 1
      objectReference: {fileID: 0}
    m_RemovedComponents: []
  m_SourcePrefab: {fileID: 100100000, guid: 4ac7df741a9c0a2418ec19477729ee3d, type: 3}
