%YAML 1.1
%TAG !u! tag:unity3d.com,2011:
--- !u!114 &-8605216892868706140
MonoBehaviour:
  m_ObjectHideFlags: 0
  m_CorrespondingSourceObject: {fileID: 0}
  m_PrefabInstance: {fileID: 0}
  m_PrefabAsset: {fileID: 0}
  m_GameObject: {fileID: 0}
  m_Enabled: 1
  m_EditorHideFlags: 0
  m_Script: {fileID: 11500000, guid: d236b7d11115f2143951f1e14045df39, type: 3}
  m_Name: Android Settings
  m_EditorClassIdentifier: 
  m_LoaderManagerInstance: {fileID: -631941823564325786}
  m_InitManagerOnStart: 1
--- !u!114 &-7955788754750697609
MonoBehaviour:
  m_ObjectHideFlags: 0
  m_CorrespondingSourceObject: {fileID: 0}
  m_PrefabInstance: {fileID: 0}
  m_PrefabAsset: {fileID: 0}
  m_GameObject: {fileID: 0}
  m_Enabled: 1
  m_EditorHideFlags: 0
  m_Script: {fileID: 11500000, guid: f4c3631f5e58749a59194e0cf6baf6d5, type: 3}
  m_Name: Standalone Providers
  m_EditorClassIdentifier: 
  m_RequiresSettingsUpdate: 0
  m_AutomaticLoading: 0
  m_AutomaticRunning: 0
  m_Loaders:
  - {fileID: 11400000, guid: 35b1685cf8c0ae64e8e72252259ce06c, type: 2}
--- !u!114 &-3242971877296671879
MonoBehaviour:
  m_ObjectHideFlags: 0
  m_CorrespondingSourceObject: {fileID: 0}
  m_PrefabInstance: {fileID: 0}
  m_PrefabAsset: {fileID: 0}
  m_GameObject: {fileID: 0}
  m_Enabled: 1
  m_EditorHideFlags: 0
  m_Script: {fileID: 11500000, guid: f4c3631f5e58749a59194e0cf6baf6d5, type: 3}
  m_Name: WebGL Providers
  m_EditorClassIdentifier: 
  m_RequiresSettingsUpdate: 0
  m_AutomaticLoading: 0
  m_AutomaticRunning: 0
  m_Loaders: []
--- !u!114 &-631941823564325786
MonoBehaviour:
  m_ObjectHideFlags: 0
  m_CorrespondingSourceObject: {fileID: 0}
  m_PrefabInstance: {fileID: 0}
  m_PrefabAsset: {fileID: 0}
  m_GameObject: {fileID: 0}
  m_Enabled: 1
  m_EditorHideFlags: 0
  m_Script: {fileID: 11500000, guid: f4c3631f5e58749a59194e0cf6baf6d5, type: 3}
  m_Name: Android Providers
  m_EditorClassIdentifier: 
  m_RequiresSettingsUpdate: 0
  m_AutomaticLoading: 0
  m_AutomaticRunning: 0
  m_Loaders:
  - {fileID: 11400000, guid: 35b1685cf8c0ae64e8e72252259ce06c, type: 2}
--- !u!114 &11400000
MonoBehaviour:
  m_ObjectHideFlags: 0
  m_CorrespondingSourceObject: {fileID: 0}
  m_PrefabInstance: {fileID: 0}
  m_PrefabAsset: {fileID: 0}
  m_GameObject: {fileID: 0}
  m_Enabled: 1
  m_EditorHideFlags: 0
  m_Script: {fileID: 11500000, guid: d2dc886499c26824283350fa532d087d, type: 3}
  m_Name: XRGeneralSettingsPerBuildTarget
  m_EditorClassIdentifier: 
  Keys: 010000000d00000007000000
  Values:
  - {fileID: 9013907431763460557}
  - {fileID: 1909380922528385304}
  - {fileID: -8605216892868706140}
--- !u!114 &1909380922528385304
MonoBehaviour:
  m_ObjectHideFlags: 0
  m_CorrespondingSourceObject: {fileID: 0}
  m_PrefabInstance: {fileID: 0}
  m_PrefabAsset: {fileID: 0}
  m_GameObject: {fileID: 0}
  m_Enabled: 1
  m_EditorHideFlags: 0
  m_Script: {fileID: 11500000, guid: d236b7d11115f2143951f1e14045df39, type: 3}
  m_Name: WebGL Settings
  m_EditorClassIdentifier: 
  m_LoaderManagerInstance: {fileID: -3242971877296671879}
  m_InitManagerOnStart: 1
--- !u!114 &9013907431763460557
MonoBehaviour:
  m_ObjectHideFlags: 0
  m_CorrespondingSourceObject: {fileID: 0}
  m_PrefabInstance: {fileID: 0}
  m_PrefabAsset: {fileID: 0}
  m_GameObject: {fileID: 0}
  m_Enabled: 1
  m_EditorHideFlags: 0
  m_Script: {fileID: 11500000, guid: d236b7d11115f2143951f1e14045df39, type: 3}
  m_Name: Standalone Settings
  m_EditorClassIdentifier: 
  m_LoaderManagerInstance: {fileID: -7955788754750697609}
  m_InitManagerOnStart: 1
